Sep 22, 2017 12:34:06 PM loops main
INFO: 19 
Sep 22, 2017 12:34:06 PM loops main
INFO: 84 
Sep 22, 2017 12:34:06 PM loops main
INFO: 63 
Sep 22, 2017 12:34:06 PM loops main
INFO: 75 
Sep 22, 2017 12:34:06 PM loops main
INFO: 9 
Sep 22, 2017 12:34:06 PM loops main
INFO: 49 
Sep 22, 2017 12:34:06 PM loops main
INFO: 37 
Sep 22, 2017 12:34:06 PM loops main
INFO: 83 
Sep 22, 2017 12:34:06 PM loops main
INFO: 49 
Sep 22, 2017 12:34:06 PM loops main
INFO: 40 
Sep 22, 2017 12:34:06 PM loops main
INFO: 2 
Sep 22, 2017 12:34:06 PM loops main
INFO: 31 
Sep 22, 2017 12:34:06 PM loops main
INFO: 91 
Sep 22, 2017 12:34:06 PM loops main
INFO: 13 
Sep 22, 2017 12:34:06 PM loops main
INFO: 29 
Sep 22, 2017 12:34:06 PM loops main
INFO: 76 
Sep 22, 2017 12:34:06 PM loops main
INFO: 16 
Sep 22, 2017 12:34:06 PM loops main
INFO: 92 
Sep 22, 2017 12:34:06 PM loops main
INFO: 1 
Sep 22, 2017 12:34:06 PM loops main
INFO: 9 
Sep 22, 2017 12:34:06 PM loops main
INFO: 76 
Sep 22, 2017 12:34:06 PM loops main
INFO: 51 
Sep 22, 2017 12:34:06 PM loops main
INFO: 1 
Sep 22, 2017 12:34:06 PM loops main
INFO: 11 
Sep 22, 2017 12:34:06 PM loops main
INFO: 6 
Sep 22, 2017 12:34:06 PM loops main
INFO: 57 
Sep 22, 2017 12:34:06 PM loops main
INFO: 75 
Sep 22, 2017 12:34:06 PM loops main
INFO: 61 
Sep 22, 2017 12:34:06 PM loops main
INFO: 29 
Sep 22, 2017 12:34:06 PM loops main
INFO: 46 
Sep 22, 2017 12:34:06 PM loops main
INFO: 73 
Sep 22, 2017 12:34:06 PM loops main
INFO: 33 
Sep 22, 2017 12:34:06 PM loops main
INFO: 37 
Sep 22, 2017 12:34:06 PM loops main
INFO: 22 
Sep 22, 2017 12:34:06 PM loops main
INFO: 12 
Sep 22, 2017 12:34:06 PM loops main
INFO: 3 
Sep 22, 2017 12:34:06 PM loops main
INFO: 27 
Sep 22, 2017 12:34:06 PM loops main
INFO: 62 
Sep 22, 2017 12:34:06 PM loops main
INFO: 52 
Sep 22, 2017 12:34:06 PM loops main
INFO: 10 
Sep 22, 2017 12:34:06 PM loops main
INFO: 66 
Sep 22, 2017 12:34:06 PM loops main
INFO: 37 
Sep 22, 2017 12:34:06 PM loops main
INFO: 66 
Sep 22, 2017 12:34:06 PM loops main
INFO: 69 
Sep 22, 2017 12:34:06 PM loops main
INFO: 5 
Sep 22, 2017 12:34:06 PM loops main
INFO: 76 
Sep 22, 2017 12:34:06 PM loops main
INFO: 77 
Sep 22, 2017 12:34:06 PM loops main
INFO: 65 
Sep 22, 2017 12:34:06 PM loops main
INFO: 19 
Sep 22, 2017 12:34:06 PM loops main
INFO: 38 
Sep 22, 2017 12:34:06 PM loops main
INFO: 66 
Sep 22, 2017 12:34:06 PM loops main
INFO: 12 
Sep 22, 2017 12:34:06 PM loops main
INFO: 38 
Sep 22, 2017 12:34:06 PM loops main
INFO: 83 
Sep 22, 2017 12:34:06 PM loops main
INFO: 99 
Sep 22, 2017 12:34:06 PM loops main
INFO: 9 
Sep 22, 2017 12:34:06 PM loops main
INFO: 65 
Sep 22, 2017 12:34:06 PM loops main
INFO: 88 
Sep 22, 2017 12:34:06 PM loops main
INFO: 35 
Sep 22, 2017 12:34:06 PM loops main
INFO: 60 
Sep 22, 2017 12:34:06 PM loops main
INFO: 81 
Sep 22, 2017 12:34:06 PM loops main
INFO: 70 
Sep 22, 2017 12:34:06 PM loops main
INFO: 48 
Sep 22, 2017 12:34:06 PM loops main
INFO: 0 
Sep 22, 2017 12:34:06 PM loops main
INFO: 90 
Sep 22, 2017 12:34:06 PM loops main
INFO: 32 
Sep 22, 2017 12:34:06 PM loops main
INFO: 19 
Sep 22, 2017 12:34:06 PM loops main
INFO: 82 
Sep 22, 2017 12:34:06 PM loops main
INFO: 79 
Sep 22, 2017 12:34:06 PM loops main
INFO: 33 
Sep 22, 2017 12:34:06 PM loops main
INFO: 25 
Sep 22, 2017 12:34:06 PM loops main
INFO: 9 
Sep 22, 2017 12:34:06 PM loops main
INFO: 15 
Sep 22, 2017 12:34:06 PM loops main
INFO: 75 
Sep 22, 2017 12:34:06 PM loops main
INFO: 80 
Sep 22, 2017 12:34:06 PM loops main
INFO: 15 
Sep 22, 2017 12:34:06 PM loops main
INFO: 48 
Sep 22, 2017 12:34:06 PM loops main
INFO: 99 
Sep 22, 2017 12:34:06 PM loops main
INFO: 64 
Sep 22, 2017 12:34:06 PM loops main
INFO: 23 
Sep 22, 2017 12:34:06 PM loops main
INFO: 30 
Sep 22, 2017 12:34:06 PM loops main
INFO: 37 
Sep 22, 2017 12:34:06 PM loops main
INFO: 12 
Sep 22, 2017 12:34:06 PM loops main
INFO: 71 
Sep 22, 2017 12:34:06 PM loops main
INFO: 22 
Sep 22, 2017 12:34:06 PM loops main
INFO: 7 
Sep 22, 2017 12:34:06 PM loops main
INFO: 4 
Sep 22, 2017 12:34:06 PM loops main
INFO: 86 
Sep 22, 2017 12:34:06 PM loops main
INFO: 29 
Sep 22, 2017 12:34:06 PM loops main
INFO: 46 
Sep 22, 2017 12:34:06 PM loops main
INFO: 92 
Sep 22, 2017 12:34:06 PM loops main
INFO: 40 
Sep 22, 2017 12:34:06 PM loops main
INFO: 48 
Sep 22, 2017 12:34:06 PM loops main
INFO: 37 
Sep 22, 2017 12:34:06 PM loops main
INFO: 33 
Sep 22, 2017 12:34:06 PM loops main
INFO: 79 
Sep 22, 2017 12:34:06 PM loops main
INFO: 85 
Sep 22, 2017 12:34:06 PM loops main
INFO: 18 
Sep 22, 2017 12:34:06 PM loops main
INFO: 84 
Sep 22, 2017 12:34:06 PM loops main
INFO: 75 
Sep 22, 2017 12:34:06 PM loops main
INFO: 19 
Sep 22, 2017 12:34:06 PM loops main
INFO: 84 
Sep 22, 2017 12:34:06 PM loops main
INFO: 63 
Sep 22, 2017 12:34:06 PM loops main
INFO: 75 
Sep 22, 2017 12:34:06 PM loops main
INFO: 9 
Sep 22, 2017 12:34:06 PM loops main
INFO: 49 
Sep 22, 2017 12:34:06 PM loops main
INFO: 37 
Sep 22, 2017 12:34:06 PM loops main
INFO: 83 
Sep 22, 2017 12:34:06 PM loops main
INFO: 49 
Sep 22, 2017 12:34:06 PM loops main
INFO: 40 
Sep 22, 2017 12:34:06 PM loops main
INFO: 2 
Sep 22, 2017 12:34:06 PM loops main
INFO: 31 
Sep 22, 2017 12:34:06 PM loops main
INFO: 91 
Sep 22, 2017 12:34:06 PM loops main
INFO: 13 
Sep 22, 2017 12:34:06 PM loops main
INFO: 29 
Sep 22, 2017 12:34:06 PM loops main
INFO: 76 
Sep 22, 2017 12:34:06 PM loops main
INFO: 16 
Sep 22, 2017 12:34:06 PM loops main
INFO: 92 
Sep 22, 2017 12:34:06 PM loops main
INFO: 1 
Sep 22, 2017 12:34:06 PM loops main
INFO: 9 
Sep 22, 2017 12:34:06 PM loops main
INFO: 76 
Sep 22, 2017 12:34:06 PM loops main
INFO: 51 
Sep 22, 2017 12:34:06 PM loops main
INFO: 1 
Sep 22, 2017 12:34:06 PM loops main
INFO: 11 
Sep 22, 2017 12:34:06 PM loops main
INFO: 6 
Sep 22, 2017 12:34:06 PM loops main
INFO: 57 
Sep 22, 2017 12:34:06 PM loops main
INFO: 75 
Sep 22, 2017 12:34:06 PM loops main
INFO: 61 
Sep 22, 2017 12:34:06 PM loops main
INFO: 29 
Sep 22, 2017 12:34:06 PM loops main
INFO: 46 
Sep 22, 2017 12:34:06 PM loops main
INFO: 73 
Sep 22, 2017 12:34:06 PM loops main
INFO: 33 
Sep 22, 2017 12:34:06 PM loops main
INFO: 37 
Sep 22, 2017 12:34:06 PM loops main
INFO: 22 
Sep 22, 2017 12:34:06 PM loops main
INFO: 12 
Sep 22, 2017 12:34:06 PM loops main
INFO: 3 
Sep 22, 2017 12:34:06 PM loops main
INFO: 27 
Sep 22, 2017 12:34:06 PM loops main
INFO: 62 
Sep 22, 2017 12:34:06 PM loops main
INFO: 52 
Sep 22, 2017 12:34:06 PM loops main
INFO: 10 
Sep 22, 2017 12:34:06 PM loops main
INFO: 66 
Sep 22, 2017 12:34:06 PM loops main
INFO: 37 
Sep 22, 2017 12:34:06 PM loops main
INFO: 66 
Sep 22, 2017 12:34:06 PM loops main
INFO: 69 
Sep 22, 2017 12:34:06 PM loops main
INFO: 5 
Sep 22, 2017 12:34:06 PM loops main
INFO: 76 
Sep 22, 2017 12:34:06 PM loops main
INFO: 77 
Sep 22, 2017 12:34:06 PM loops main
INFO: 65 
Sep 22, 2017 12:34:06 PM loops main
INFO: 19 
Sep 22, 2017 12:34:06 PM loops main
INFO: 38 
Sep 22, 2017 12:34:06 PM loops main
INFO: 66 
Sep 22, 2017 12:34:06 PM loops main
INFO: 12 
Sep 22, 2017 12:34:06 PM loops main
INFO: 38 
Sep 22, 2017 12:34:06 PM loops main
INFO: 83 
Sep 22, 2017 12:34:06 PM loops main
INFO: 99 
Sep 22, 2017 12:34:06 PM loops main
INFO: 9 
Sep 22, 2017 12:34:06 PM loops main
INFO: 65 
Sep 22, 2017 12:34:06 PM loops main
INFO: 88 
Sep 22, 2017 12:34:06 PM loops main
INFO: 35 
Sep 22, 2017 12:34:06 PM loops main
INFO: 60 
Sep 22, 2017 12:34:06 PM loops main
INFO: 81 
Sep 22, 2017 12:34:06 PM loops main
INFO: 70 
Sep 22, 2017 12:34:06 PM loops main
INFO: 48 
Sep 22, 2017 12:34:06 PM loops main
INFO: 0 
Sep 22, 2017 12:34:06 PM loops main
INFO: 90 
Sep 22, 2017 12:34:06 PM loops main
INFO: 32 
Sep 22, 2017 12:34:06 PM loops main
INFO: 19 
Sep 22, 2017 12:34:06 PM loops main
INFO: 82 
Sep 22, 2017 12:34:06 PM loops main
INFO: 79 
Sep 22, 2017 12:34:06 PM loops main
INFO: 33 
Sep 22, 2017 12:34:06 PM loops main
INFO: 25 
Sep 22, 2017 12:34:06 PM loops main
INFO: 9 
Sep 22, 2017 12:34:06 PM loops main
INFO: 15 
Sep 22, 2017 12:34:06 PM loops main
INFO: 75 
Sep 22, 2017 12:34:06 PM loops main
INFO: 80 
Sep 22, 2017 12:34:06 PM loops main
INFO: 15 
Sep 22, 2017 12:34:06 PM loops main
INFO: 48 
Sep 22, 2017 12:34:06 PM loops main
INFO: 99 
Sep 22, 2017 12:34:06 PM loops main
INFO: 64 
Sep 22, 2017 12:34:06 PM loops main
INFO: 23 
Sep 22, 2017 12:34:06 PM loops main
INFO: 30 
Sep 22, 2017 12:34:06 PM loops main
INFO: 37 
Sep 22, 2017 12:34:06 PM loops main
INFO: 12 
Sep 22, 2017 12:34:06 PM loops main
INFO: 71 
Sep 22, 2017 12:34:06 PM loops main
INFO: 22 
Sep 22, 2017 12:34:06 PM loops main
INFO: 7 
Sep 22, 2017 12:34:06 PM loops main
INFO: 4 
Sep 22, 2017 12:34:06 PM loops main
INFO: 86 
Sep 22, 2017 12:34:06 PM loops main
INFO: 29 
Sep 22, 2017 12:34:06 PM loops main
INFO: 46 
Sep 22, 2017 12:34:06 PM loops main
INFO: 92 
Sep 22, 2017 12:34:06 PM loops main
INFO: 40 
Sep 22, 2017 12:34:06 PM loops main
INFO: 48 
Sep 22, 2017 12:34:06 PM loops main
INFO: 37 
Sep 22, 2017 12:34:06 PM loops main
INFO: 33 
Sep 22, 2017 12:34:06 PM loops main
INFO: 79 
Sep 22, 2017 12:34:06 PM loops main
INFO: 85 
Sep 22, 2017 12:34:06 PM loops main
INFO: 18 
Sep 22, 2017 12:34:06 PM loops main
INFO: 84 
Sep 22, 2017 12:34:06 PM loops main
INFO: 75 
Sep 22, 2017 12:34:06 PM loops main
INFO: 19 
Sep 22, 2017 12:34:06 PM loops main
INFO: 84 
Sep 22, 2017 12:34:06 PM loops main
INFO: 63 
Sep 22, 2017 12:34:06 PM loops main
INFO: 75 
Sep 22, 2017 12:34:06 PM loops main
INFO: 9 
Sep 22, 2017 12:34:06 PM loops main
INFO: 49 
Sep 22, 2017 12:34:06 PM loops main
INFO: 37 
Sep 22, 2017 12:34:06 PM loops main
INFO: 83 
Sep 22, 2017 12:34:06 PM loops main
INFO: 49 
Sep 22, 2017 12:34:06 PM loops main
INFO: 40 
Sep 22, 2017 12:34:06 PM loops main
INFO: 2 
Sep 22, 2017 12:34:06 PM loops main
INFO: 31 
Sep 22, 2017 12:34:06 PM loops main
INFO: 91 
Sep 22, 2017 12:34:06 PM loops main
INFO: 13 
Sep 22, 2017 12:34:06 PM loops main
INFO: 29 
Sep 22, 2017 12:34:06 PM loops main
INFO: 76 
Sep 22, 2017 12:34:06 PM loops main
INFO: 16 
Sep 22, 2017 12:34:06 PM loops main
INFO: 92 
Sep 22, 2017 12:34:06 PM loops main
INFO: 1 
Sep 22, 2017 12:34:06 PM loops main
INFO: 9 
Sep 22, 2017 12:34:06 PM loops main
INFO: 76 
Sep 22, 2017 12:34:06 PM loops main
INFO: 51 
Sep 22, 2017 12:34:06 PM loops main
INFO: 1 
Sep 22, 2017 12:34:06 PM loops main
INFO: 11 
Sep 22, 2017 12:34:06 PM loops main
INFO: 6 
Sep 22, 2017 12:34:06 PM loops main
INFO: 57 
Sep 22, 2017 12:34:06 PM loops main
INFO: 75 
Sep 22, 2017 12:34:06 PM loops main
INFO: 61 
Sep 22, 2017 12:34:06 PM loops main
INFO: 29 
Sep 22, 2017 12:34:06 PM loops main
INFO: 46 
Sep 22, 2017 12:34:06 PM loops main
INFO: 73 
Sep 22, 2017 12:34:06 PM loops main
INFO: 33 
Sep 22, 2017 12:34:06 PM loops main
INFO: 37 
Sep 22, 2017 12:34:06 PM loops main
INFO: 22 
Sep 22, 2017 12:34:06 PM loops main
INFO: 12 
Sep 22, 2017 12:34:06 PM loops main
INFO: 3 
Sep 22, 2017 12:34:06 PM loops main
INFO: 27 
Sep 22, 2017 12:34:06 PM loops main
INFO: 62 
Sep 22, 2017 12:34:06 PM loops main
INFO: 52 
Sep 22, 2017 12:34:06 PM loops main
INFO: 10 
Sep 22, 2017 12:34:06 PM loops main
INFO: 66 
Sep 22, 2017 12:34:06 PM loops main
INFO: 37 
Sep 22, 2017 12:34:06 PM loops main
INFO: 66 
Sep 22, 2017 12:34:06 PM loops main
INFO: 69 
Sep 22, 2017 12:34:06 PM loops main
INFO: 5 
Sep 22, 2017 12:34:06 PM loops main
INFO: 76 
Sep 22, 2017 12:34:06 PM loops main
INFO: 77 
Sep 22, 2017 12:34:06 PM loops main
INFO: 65 
Sep 22, 2017 12:34:06 PM loops main
INFO: 19 
Sep 22, 2017 12:34:06 PM loops main
INFO: 38 
Sep 22, 2017 12:34:06 PM loops main
INFO: 66 
Sep 22, 2017 12:34:06 PM loops main
INFO: 12 
Sep 22, 2017 12:34:06 PM loops main
INFO: 38 
Sep 22, 2017 12:34:06 PM loops main
INFO: 83 
Sep 22, 2017 12:34:06 PM loops main
INFO: 99 
Sep 22, 2017 12:34:06 PM loops main
INFO: 9 
Sep 22, 2017 12:34:06 PM loops main
INFO: 65 
Sep 22, 2017 12:34:06 PM loops main
INFO: 88 
Sep 22, 2017 12:34:06 PM loops main
INFO: 35 
Sep 22, 2017 12:34:06 PM loops main
INFO: 60 
Sep 22, 2017 12:34:06 PM loops main
INFO: 81 
Sep 22, 2017 12:34:06 PM loops main
INFO: 70 
Sep 22, 2017 12:34:06 PM loops main
INFO: 48 
Sep 22, 2017 12:34:06 PM loops main
INFO: 0 
Sep 22, 2017 12:34:06 PM loops main
INFO: 90 
Sep 22, 2017 12:34:06 PM loops main
INFO: 32 
Sep 22, 2017 12:34:06 PM loops main
INFO: 19 
Sep 22, 2017 12:34:06 PM loops main
INFO: 82 
Sep 22, 2017 12:34:06 PM loops main
INFO: 79 
Sep 22, 2017 12:34:06 PM loops main
INFO: 33 
Sep 22, 2017 12:34:06 PM loops main
INFO: 25 
Sep 22, 2017 12:34:06 PM loops main
INFO: 9 
Sep 22, 2017 12:34:06 PM loops main
INFO: 15 
Sep 22, 2017 12:34:06 PM loops main
INFO: 75 
Sep 22, 2017 12:34:06 PM loops main
INFO: 80 
Sep 22, 2017 12:34:06 PM loops main
INFO: 15 
Sep 22, 2017 12:34:06 PM loops main
INFO: 48 
Sep 22, 2017 12:34:06 PM loops main
INFO: 99 
Sep 22, 2017 12:34:06 PM loops main
INFO: 64 
Sep 22, 2017 12:34:06 PM loops main
INFO: 23 
Sep 22, 2017 12:34:06 PM loops main
INFO: 30 
Sep 22, 2017 12:34:06 PM loops main
INFO: 37 
Sep 22, 2017 12:34:06 PM loops main
INFO: 12 
Sep 22, 2017 12:34:06 PM loops main
INFO: 71 
Sep 22, 2017 12:34:06 PM loops main
INFO: 22 
Sep 22, 2017 12:34:06 PM loops main
INFO: 7 
Sep 22, 2017 12:34:06 PM loops main
INFO: 4 
Sep 22, 2017 12:34:06 PM loops main
INFO: 86 
Sep 22, 2017 12:34:06 PM loops main
INFO: 29 
Sep 22, 2017 12:34:06 PM loops main
INFO: 46 
Sep 22, 2017 12:34:06 PM loops main
INFO: 92 
Sep 22, 2017 12:34:06 PM loops main
INFO: 40 
Sep 22, 2017 12:34:06 PM loops main
INFO: 48 
Sep 22, 2017 12:34:06 PM loops main
INFO: 37 
Sep 22, 2017 12:34:06 PM loops main
INFO: 33 
Sep 22, 2017 12:34:06 PM loops main
INFO: 79 
Sep 22, 2017 12:34:06 PM loops main
INFO: 85 
Sep 22, 2017 12:34:06 PM loops main
INFO: 18 
Sep 22, 2017 12:34:06 PM loops main
INFO: 84 
Sep 22, 2017 12:34:06 PM loops main
INFO: 75 
